…
### Example 4.3: Effects of measurement error on autoregression coefficients.

We still don’t have a Newom script from this example, but we can still
fit the model. Here are the unwanted advice items.

``` r
socex1.1 %>% 
  select(contains("unw"))
```

    ## # A tibble: 574 x 11
    ##    w1unw1 w1unw2 w1unw3 w2unw1 w2unw2 w2unw3 w3unw1 w3unw2 w3unw3 unw_1 unw_2
    ##     <dbl>  <dbl>  <dbl>  <dbl>  <dbl>  <dbl>  <dbl>  <dbl>  <dbl> <dbl> <dbl>
    ##  1      2      2      3      4      4      4      2      3      3  2.33  4   
    ##  2      1      3      2      3      2      3      2      3      2  2     2.67
    ##  3      2      1      1      1      3      2      2      2      2  1.33  2   
    ##  4      4      3      3      3      2      1      3      4      2  3.33  2   
    ##  5      2      4      3      2      3      2      2      3      2  3     2.33
    ##  6      0      2      1      2      1      1      2      1      1  1     1.33
    ##  7      2      2      2      3      2      3      2      2      1  2     2.67
    ##  8      4      3      3      3      3      4      4      4      3  3.33  3.33
    ##  9      3      1      3      2      3      3      2      3      2  2.33  2.67
    ## 10      4      2      3      2      3      2      2      3      2  3     2.33
    ## # … with 564 more rows
…
