…
### Example 7.4: Time-varying covariate.

In the `health1` data set, self-related health is coded in the columns
`srh1:srh6`.

``` r
health1 %>% 
  select(srh1:srh6)
```

    ## # A tibble: 5,335 x 6
    ##     srh1  srh2  srh3  srh4  srh5  srh6
    ##    <dbl> <dbl> <dbl> <dbl> <dbl> <dbl>
    ##  1  3.22 2.84  1.58   1.25  2.11 0.717
    ##  2  2.94 0.475 0.666  3.08  3.31 3.43 
    ##  3  2.06 2.98  3.40   2.93  2.91 2.21 
    ##  4  3.10 5.19  3.97   3.11  3.39 4.09 
    ##  5  5.04 4.84  3.42   4.04  3.68 2.89 
    ##  6  3.56 3.14  4.38   4.86  3.94 5.42 
    ##  7  5.58 5.80  4.26   4.99  4.71 4.20 
    ##  8  2.53 1.72  2.44   2.83  2.04 1.81 
    ##  9  1.63 1.72  0.874  2.87  1.35 0.803
    ## 10  3.68 3.25  2.06   3.14  2.71 3.52 
    ## # … with 5,325 more rows
…
