…
``` r
socex1.1 <-
  socex1.1 %>% 
  mutate(w1dbothd = if_else(w1dboth  == 0, 0, 1),
         w1dsadd  = if_else(w1dsad   == 0, 0, 1),
         w1dblued = if_else(w1dblues == 0, 0, 1),
         w1ddepd  = if_else(w1ddep   == 0, 0, 1))

socex1.1 %>% 
  select(w1dboth:w1ddep, w1dbothd:w1ddepd)
```

    ## # A tibble: 574 x 8
    ##    w1dboth w1dsad w1dblues w1ddep w1dbothd w1dsadd w1dblued w1ddepd
    ##      <dbl>  <dbl>    <dbl>  <dbl>    <dbl>   <dbl>    <dbl>   <dbl>
    ##  1       0      0        1      0        0       0        1       0
    ##  2       0      1        1      1        0       1        1       1
    ##  3       0      0        0      0        0       0        0       0
    ##  4       2      0        0      0        1       0        0       0
    ##  5       1      2        1      1        1       1        1       1
    ##  6       0      0        0      0        0       0        0       0
    ##  7       0      0        1      2        0       0        1       1
    ##  8       0      2        0      1        0       1        0       1
    ##  9       0      0        0      0        0       0        0       0
    ## 10       0      0        0      0        0       0        0       0
    ## # … with 564 more rows
…
I’m not sure what happened, but starting here and going further, there
appear to be a lot of mistakes in the text. First, those five variables
are not in the “health and aging” data set (i.e., `health.dat`). Rather,
those variables are indeed in the social exchange data set (i.e.,
`socex1.dat`), the one we just used. Here they are:

``` r
socex1.1 %>% 
  select(w1happy:w1please)
```

    ## # A tibble: 574 x 5
    ##    w1happy w1enjoy w1satis w1joyful w1please
    ##      <dbl>   <dbl>   <dbl>    <dbl>    <dbl>
    ##  1       3       3       3        3        3
    ##  2       3       3       3        3        2
    ##  3       3       2       3        2        3
    ##  4       2       3       3        3        4
    ##  5       2       3       3        2        2
    ##  6       5       5       4        4        4
    ##  7       2       3       2        3        2
    ##  8       2       2       2        2        1
    ##  9       2       4       4        3        3
    ## 10       4       3       3        3        3
    ## # … with 564 more rows
…
``` r
socex1.1 <-
  socex1.1 %>% 
  mutate(w2dbothd = if_else(w2dboth  == 0, 0, 1),
         w2dsadd  = if_else(w2dsad   == 0, 0, 1),
         w2dblued = if_else(w2dblues == 0, 0, 1),
         w2ddepd  = if_else(w2ddep   == 0, 0, 1))

socex1.1 %>% 
  select(w2dboth:w2ddep, w2dbothd:w2ddepd)
```

    ## # A tibble: 574 x 8
    ##    w2dboth w2dsad w2dblues w2ddep w2dbothd w2dsadd w2dblued w2ddepd
    ##      <dbl>  <dbl>    <dbl>  <dbl>    <dbl>   <dbl>    <dbl>   <dbl>
    ##  1       0      1        0      1        0       1        0       1
    ##  2       0      1        2      2        0       1        1       1
    ##  3       1      1        1      0        1       1        1       0
    ##  4       1      0        0      3        1       0        0       1
    ##  5       0      1        0      0        0       1        0       0
    ##  6       0      0        0      0        0       0        0       0
    ##  7       0      0        0      0        0       0        0       0
    ##  8       2      0        2      3        1       0        1       1
    ##  9       0      1        0      1        0       1        0       1
    ## 10       0      1        0      0        0       1        0       0
    ## # … with 564 more rows
…
